15:53:15 ADD : 10.0.100.88:4459 <Port name - 9010>
16:19:43 ADD : 10.0.100.88:4787 <Port name - 9010>
16:32:29 ADD : 10.0.100.88:4857 <Port name - 9010>
16:37:58 Remove : 10.0.100.88:4857 : 10.0.100.88:6010 <Port name - 9010>
16:39:05 ADD : 10.0.100.88:4910 <Port name - 9010>
16:49:06 Remove : 10.0.100.88:4910 : 10.0.100.88:6010 <Port name - 9010>
16:49:44 ADD : 10.0.100.88:4960 <Port name - 9010>
