$30424,271212,073112,13.0280209,101.074249,76,218,1,12,80,1400,G,,420,1400. . . 10.0.100.88:6605

$2944,271212,073112,13.6997185,100.679153,33,86,1,12,80,1300,G,,420,1300. . . 10.0.100.88:6605

$41815,271212,073112,14.0688124,100.571861,59,176,1,12,80,1400,G,,420,1400. . . 10.0.100.88:6605

$43952,271212,072448,13.7858067,100.573845,0,90,1,10,80,1300,G,,410,1300. . . 10.0.100.88:6605

$40846,271212,100818,13.8038692,100.53907,0,290,1,12,80,1200,G,,420,1200. . . 10.0.100.88:6605

