14:19:15,181,GetNPutLocation,141403.0878,ms
14:19:22,181,MagneticCard,3258.1863,ms
14:24:34,181,GetNPutLocation,101983.8332,ms
14:24:36,181,MagneticCard,2733.1564,ms
14:24:47,181,GetNPutLocation,2276.1302,ms
14:24:50,181,MagneticCard,2100.1201,ms
14:27:09,181,GetNPutLocation,131745.5354,ms
