1501202998564 ,9/3/2015 9:37:13 AM ,66959353888
1501424784025 ,9/3/2015 9:43:09 AM ,66959353888
1501284750319 ,9/3/2015 10:14:24 AM ,66959353888
1501203192853 ,9/3/2015 10:27:05 AM ,66959353888
1501424952439 ,9/3/2015 10:44:00 AM ,66959353888
1501304482928 ,9/3/2015 2:53:17 PM ,66959353888
1501369835857 ,9/3/2015 2:53:18 PM ,66959353888
1501304486158 ,9/3/2015 2:55:16 PM ,66959353888
1501331792674 ,9/3/2015 2:56:15 PM ,66959353888
1501427338040 ,9/3/2015 2:58:15 PM ,66959353888
1501400622582 ,9/3/2015 2:59:15 PM ,66959353888
1501304497001 ,9/3/2015 3:01:16 PM ,66959353888
1501204071298 ,9/3/2015 3:02:15 PM ,66959353888
1501427350546 ,9/3/2015 3:04:15 PM ,66959353888
1501427354608 ,9/3/2015 3:06:16 PM ,66959353888
1501331816310 ,9/3/2015 3:06:17 PM ,66959353888
1501427354657 ,9/3/2015 3:06:18 PM ,66959353888
1501285570435 ,9/3/2015 3:08:15 PM ,66959353888
1501204088094 ,9/3/2015 3:08:16 PM ,66959353888
1501369861242 ,9/3/2015 3:08:17 PM ,66959353888
